{
  "Lorem ipsum": {
    "link": "#",
    "subnav": [
      [
        {
          "group": "Lorem ipsum dolor site",
          "link": "#",
          "items": [
          ]
        },
        {
          "group": "Lorem ipsum dolor site",
          "link": "#",
          "items": [
          ]
        }
      ],
      [
        {
          "group": "Lorem ipsum dolor site",
          "link": "#",
          "items": [
          ]
        },
        {
          "group": "Lorem ipsum dolor site",
          "link": "#",
          "items": [
          ]
        }
      ],
      [
        {
          "group": "Lorem ipsum dolor site",
          "link": "#",
          "items": [
          ]
        },
        {
          "group": "Lorem ipsum dolor site",
          "link": "#",
          "items": [
          ]
        },
        {
          "group": "Lorem ipsum dolor site",
          "link": "#",
          "items": [
          ]
        }
      ],
      [
        {
          "group": "Lorem ipsum dolor site",
          "link": "#",
          "items": [
          ]
        },
        {
          "group": "Lorem ipsum dolor site",
          "link": "#",
          "items": [
            {
              "text": "Lorem ipsum dolor site",
              "link": "#"
            },
            {
              "text": "Lorem ipsum dolor site",
              "link": "#"
            },
            {
              "text": "Lorem ipsum dolor site",
              "link": "#"
            },
            {
              "text": "Lorem ipsum dolor site",
              "link": "#"
            }
          ]
        }
      ]
    ]
  },
  "Lorem ipsum": {
    "link": "#",
    "active": true,
    "subnav": [
      [
        {
          "group": "Lorem ipsum dolor site",
          "link": "#",
          "items": [

          ]
        },
        {
          "group": "Lorem ipsum dolor site",
          "link": "#",
          "items": [

          ]
        }
      ],
      [
        {
          "group": "Lorem ipsum dolor site",
          "link": "#",
          "items": [

          ]
        },
        {
          "group": "Lorem ipsum dolor site",
          "link": "#",
          "items": [

          ]
        }
      ],
      [
        {
          "group": "Lorem ipsum dolor site",
          "link": "#",
          "items": [

          ]
        },
        {
          "group": "Lorem ipsum dolor site",
          "link": "#",
          "items": [

          ]
        }
      ]
    ]
  },
  "Lorem ipsum": {
    "link": "#",
    "subnav": [
      [
        {
          "group": "Lorem ipsum dolor site",
          "link": "#",
          "items": [

          ]
        },
        {
          "group": "Lorem ipsum dolor site",
          "link": "#",
          "items": [

          ]
        }
      ]
    ]
  },
  "Lorem ipsum": {
    "link": "#",
    "subnav": [
      [
        {
          "group": "Lorem ipsum dolor site",
          "link": "#",
          "items": [

          ]
        },
        {
          "group": "Lorem ipsum dolor site",
          "link": "#",
          "items": [

          ]
        }
      ],
      [
        {
          "group": "Lorem ipsum dolor site",
          "link": "#",
          "items": [

          ]
        },
        {
          "group": "Lorem ipsum dolor site",
          "link": "#",
          "items": [

          ]
        }
      ],
      [
        {
          "group": "Lorem ipsum dolor site",
          "link": "#",
          "items": [

          ]
        },
        {
          "group": "Lorem ipsum dolor site",
          "link": "#",
          "items": [

          ]
        }
      ]
    ]
  },
  "Lorem ipsum": {
    "link": "#",
    "subnav": [
      [
        {
          "group": "Lorem ipsum dolor site",
          "link": "#",
          "items": [

          ]
        },
        {
          "group": "Lorem ipsum dolor site",
          "link": "#",
          "items": [

          ]
        }
      ],
      [
        {
          "group": "Lorem ipsum dolor site",
          "link": "#",
          "items": [

          ]
        },
        {
          "group": "Lorem ipsum dolor site",
          "link": "#",
          "items": [

          ]
        }
      ],
      [
        {
          "group": "Lorem ipsum dolor site",
          "link": "#",
          "items": [

          ]
        },
        {
          "group": "Lorem ipsum dolor site",
          "link": "#",
          "items": [

          ]
        }
      ]
    ]
  },
  "Lorem ipsum": {
    "link": "#",
    "subnav": [
      [
        {
          "group": "Lorem ipsum dolor site",
          "link": "#",
          "items": [

          ]
        },
        {
          "group": "Lorem ipsum dolor site",
          "link": "#",
          "items": [

          ]
        }
      ],
      [
        {
          "group": "Lorem ipsum dolor site",
          "link": "#",
          "items": [

          ]
        },
        {
          "group": "Lorem ipsum dolor site",
          "link": "#",
          "items": [

          ]
        }
      ],
      [
        {
          "group": "Lorem ipsum dolor site",
          "link": "#",
          "items": [

          ]
        },
        {
          "group": "Lorem ipsum dolor site",
          "link": "#",
          "items": [

          ]
        }
      ],
      [
        {
          "group": "Lorem ipsum dolor site",
          "link": "#",
          "items": [

          ]
        },
        {
          "group": "Lorem ipsum dolor site",
          "link": "#",
          "items": [

          ]
        },
        {
          "group": "Lorem ipsum dolor site",
          "link": "#",
          "items": [

          ]
        }
      ]
    ]
  },
  "Lorem ipsum": {
    "link": "#",
    "subnav": [
      [
        {
          "group": "Lorem ipsum dolor site",
          "link": "#",
          "items": [

          ]
        },
        {
          "group": "Lorem ipsum dolor site",
          "link": "#",
          "items": [

          ]
        }
      ],
      [
        {
          "group": "Lorem ipsum dolor site",
          "link": "#",
          "items": [

          ]
        },
        {
          "group": "Lorem ipsum dolor site",
          "link": "#",
          "items": [

          ]
        }
      ],
      [
        {
          "group": "Lorem ipsum dolor site",
          "link": "#",
          "items": [

          ]
        },
        {
          "group": "Lorem ipsum dolor site",
          "link": "#",
          "items": [

          ]
        }
      ]
    ]
  }
}
